{
  "VMPX": [
    "1694344385792770114",
    "1693976467124756728",
    "1686328044372312064",
    "1685977861206007809",
    "1684573567630155785",
    "1684271094763786241",
    "1684197394261458945",
    "1697775004119888064"
  ],
  "ORDI": [
    "1686711618388799488",
    "1686013011293532160",
    "1686381244500848642",
    "1686711618388799488",
    "1686348871226572800",
    "1695867912563683539",
    "1697193989274001651"
  ],
  "WHEE": [
    "1687328177977171970",
    "1687457472477564928",
    "1687243193279283201",
    "1687455570662445056",
    "1685430466638446592",
    "1697428532245491882",
    "1698335754752303240",
    "1698595712798507374"
  ],
  "CNCL": [
    "1687240724314738688",
    "1687240777649565696",
    "1686222782126829568",
    "1683508795039973376",
    "1685347635434061826",
    "1697375676792254554",
    "1697882077054878053"
  ],
  "OSHI": [
    "1686980303473278977",
    "1685162152834023424",
    "1685325831546032128",
    "1685983886449205248",
    "1685220982519197696"
  ],
  "TRAC": [
    "1684165159466541056",
    "1684633224419409920",
    "1685129934098829312",
    "1684066001787441158",
    "1685282099878629378"
  ],
  "HSAC": [
    "1557470559155679232",
    "1672283960712331264",
    "1672283962687799299",
    "1665409142574465029",
    "1680001386757357572"
  ],
  "MEME": [
    "1686685242898157569",
    "1685630397940690944",
    "1684571572190040065",
    "1685761087029776384",
    "1686980303473278977"
  ],
  "ORPO": [
    "1655664372977418240",
    "1675880567915552769",
    "1676862284810059781",
    "1661628980280295426",
    "1663232532777779228"
  ],
  "MXRC": [
    "1666066674875858944",
    "1666063741165740032",
    "1665719860763000837",
    "1665721902218747905",
    "1665720339786072067"
  ],
  "SATS": [
    "1683479329479565319",
    "1687276733945487360",
    "1685845565568155648",
    "1686083186588278787",
    "1687499790848860160"
  ],
  "OXBT": [
    "1662692175677644801",
    "1698250896851812695",
    "1697670095080767931"
  ],
  "RCSV": [
    "1687407243682324481"
  ],
  "NALS": [
    "1686980303473278977"
  ],
  "DOZY": [
    "1687528857300336640"
  ]
}